\select@language {russian}
\contentsline {section}{\numberline {1}\IeC {\CYRT }\IeC {\cyre }\IeC {\cyrr }\IeC {\cyrm }\IeC {\cyri }\IeC {\cyrn }\IeC {\cyrery } \IeC {\cyri } \IeC {\cyro }\IeC {\cyrp }\IeC {\cyrr }\IeC {\cyre }\IeC {\cyrd }\IeC {\cyre }\IeC {\cyrl }\IeC {\cyre }\IeC {\cyrn }\IeC {\cyri }\IeC {\cyrya }}{3}
\contentsline {section}{\numberline {2}\IeC {\CYRCH }\IeC {\cyrt }\IeC {\cyro } \IeC {\cyrt }\IeC {\cyra }\IeC {\cyrk }\IeC {\cyro }\IeC {\cyre } LMS (Learning Management System) ?}{3}
\contentsline {paragraph}{}{3}
\contentsline {paragraph}{}{4}
\contentsline {section}{\numberline {3}\IeC {\CYRI }\IeC {\cyrs }\IeC {\cyrt }\IeC {\cyro }\IeC {\cyrr }\IeC {\cyri }\IeC {\cyrya }, \IeC {\cyrs } \IeC {\cyrch }\IeC {\cyre }\IeC {\cyrg }\IeC {\cyro } \IeC {\cyrv }\IeC {\cyrs }\IeC {\cyre } \IeC {\cyrn }\IeC {\cyra }\IeC {\cyrch }\IeC {\cyri }\IeC {\cyrn }\IeC {\cyra }\IeC {\cyrl }\IeC {\cyro }\IeC {\cyrs }\IeC {\cyrsftsn }}{5}
\contentsline {paragraph}{}{5}
\contentsline {paragraph}{}{5}
\contentsline {paragraph}{}{5}
\contentsline {section}{\numberline {4}\IeC {\CYRN }\IeC {\cyra }\IeC {\cyrs }\IeC {\cyrk }\IeC {\cyro }\IeC {\cyrl }\IeC {\cyrsftsn }\IeC {\cyrk }\IeC {\cyro } \IeC {\cyrs }\IeC {\cyri }\IeC {\cyrl }\IeC {\cyrsftsn }\IeC {\cyrn }\IeC {\cyro } LMS \IeC {\cyrp }\IeC {\cyro }\IeC {\cyrm }\IeC {\cyro }\IeC {\cyrg }\IeC {\cyra }\IeC {\cyryu }\IeC {\cyrt } \IeC {\cyrp }\IeC {\cyrr }\IeC {\cyro }\IeC {\cyrc }\IeC {\cyre }\IeC {\cyrs }\IeC {\cyrs }\IeC {\cyru } \IeC {\cyro }\IeC {\cyrb }\IeC {\cyru }\IeC {\cyrch }\IeC {\cyre }\IeC {\cyrn }\IeC {\cyri }\IeC {\cyrya }?}{6}
\contentsline {paragraph}{}{6}
\contentsline {paragraph}{}{6}
\contentsline {section}{\numberline {5}\IeC {\CYRO }\IeC {\cyrb }\IeC {\cyrs }\IeC {\cyrt }\IeC {\cyra }\IeC {\cyrn }\IeC {\cyro }\IeC {\cyrv }\IeC {\cyrk }\IeC {\cyra } \IeC {\cyrn }\IeC {\cyra } \IeC {\cyrt }\IeC {\cyre }\IeC {\cyrk }\IeC {\cyru }\IeC {\cyrshch }\IeC {\cyri }\IeC {\cyrishrt } \IeC {\cyrm }\IeC {\cyro }\IeC {\cyrm }\IeC {\cyre }\IeC {\cyrn }\IeC {\cyrt }}{7}
\contentsline {paragraph}{}{7}
\contentsline {section}{\numberline {6}\IeC {\CYRP }\IeC {\cyro }\IeC {\cyrch }\IeC {\cyre }\IeC {\cyrm }\IeC {\cyru } \IeC {\cyrs }\IeC {\cyre }\IeC {\cyrishrt }\IeC {\cyrch }\IeC {\cyra }\IeC {\cyrs } \IeC {\cyrt }\IeC {\cyra }\IeC {\cyrk } \IeC {\cyrm }\IeC {\cyrn }\IeC {\cyro }\IeC {\cyrg }\IeC {\cyro } LMS?}{8}
\contentsline {paragraph}{}{8}
\contentsline {paragraph}{}{8}
\contentsline {section}{\numberline {7}\IeC {\CYRO }\IeC {\cyrs }\IeC {\cyrn }\IeC {\cyro }\IeC {\cyrv }\IeC {\cyrn }\IeC {\cyrery }\IeC {\cyre } \IeC {\cyri }\IeC {\cyrg }\IeC {\cyrr }\IeC {\cyro }\IeC {\cyrk }\IeC {\cyri } \IeC {\cyrr }\IeC {\cyrery }\IeC {\cyrn }\IeC {\cyrk }\IeC {\cyra }}{8}
\contentsline {paragraph}{}{8}
\contentsline {section}{\numberline {8}\IeC {\CYRO }\IeC {\cyrp }\IeC {\cyrery }\IeC {\cyrt } \IeC {\cyri }\IeC {\cyrs }\IeC {\cyrp }\IeC {\cyro }\IeC {\cyrl }\IeC {\cyrsftsn }\IeC {\cyrz }\IeC {\cyro }\IeC {\cyrv }\IeC {\cyra }\IeC {\cyrn }\IeC {\cyri }\IeC {\cyrya } LMS \IeC {\cyrv } \IeC {\cyru }\IeC {\cyrch }\IeC {\cyre }\IeC {\cyrb }\IeC {\cyrn }\IeC {\cyro }\IeC {\cyrishrt } \IeC {\cyrd }\IeC {\cyre }\IeC {\cyrya }\IeC {\cyrt }\IeC {\cyre }\IeC {\cyrl }\IeC {\cyrsftsn }\IeC {\cyrn }\IeC {\cyro }\IeC {\cyrs }\IeC {\cyrt }\IeC {\cyri }}{10}
\contentsline {section}{\numberline {9}\IeC {\CYRN }\IeC {\cyro }\IeC {\cyrv }\IeC {\cyrery }\IeC {\cyre } \IeC {\cyrs }\IeC {\cyrt }\IeC {\cyra }\IeC {\cyrn }\IeC {\cyrd }\IeC {\cyra }\IeC {\cyrr }\IeC {\cyrt }\IeC {\cyrery } \IeC {\cyrd }\IeC {\cyri }\IeC {\cyrs }\IeC {\cyrt }\IeC {\cyra }\IeC {\cyrn }\IeC {\cyrc }\IeC {\cyri }\IeC {\cyro }\IeC {\cyrn }\IeC {\cyrn }\IeC {\cyro }\IeC {\cyrg }\IeC {\cyro } \IeC {\cyro }\IeC {\cyrb }\IeC {\cyrr }\IeC {\cyra }\IeC {\cyrz }\IeC {\cyro }\IeC {\cyrv }\IeC {\cyra }\IeC {\cyrn }\IeC {\cyri }\IeC {\cyrya }}{11}
\contentsline {paragraph}{}{11}
\contentsline {section}{\numberline {10}SCORM}{12}
\contentsline {paragraph}{}{12}
\contentsline {paragraph}{}{12}
\contentsline {section}{\numberline {11}LRS, xAPI}{14}
\contentsline {paragraph}{}{14}
\contentsline {paragraph}{}{14}
\contentsline {section}{\numberline {12}CASS}{16}
\contentsline {section}{\numberline {13}\IeC {\CYRS }\IeC {\cyrr }\IeC {\cyra }\IeC {\cyrv }\IeC {\cyrn }\IeC {\cyre }\IeC {\cyrn }\IeC {\cyri }\IeC {\cyre } \IeC {\cyrv }\IeC {\cyro }\IeC {\cyrz }\IeC {\cyrm }\IeC {\cyro }\IeC {\cyrzh }\IeC {\cyrn }\IeC {\cyro }\IeC {\cyrs }\IeC {\cyrt }\IeC {\cyre }\IeC {\cyrishrt } LMS}{17}
\contentsline {section}{\numberline {14}\IeC {\CYRI }\IeC {\cyrn }\IeC {\cyrt }\IeC {\cyre }\IeC {\cyrl }\IeC {\cyrl }\IeC {\cyre }\IeC {\cyrk }\IeC {\cyrt }\IeC {\cyru }\IeC {\cyra }\IeC {\cyrl }\IeC {\cyrsftsn }\IeC {\cyrn }\IeC {\cyrery }\IeC {\cyre } LMS}{18}
\contentsline {section}{\numberline {15}\IeC {\CYRP }\IeC {\cyrr }\IeC {\cyri }\IeC {\cyrm }\IeC {\cyre }\IeC {\cyrn }\IeC {\cyre }\IeC {\cyrn }\IeC {\cyri }\IeC {\cyre } \IeC {\cyri }\IeC {\cyrn }\IeC {\cyrt }\IeC {\cyre }\IeC {\cyrl }\IeC {\cyrl }\IeC {\cyre }\IeC {\cyrk }\IeC {\cyrt }\IeC {\cyru }\IeC {\cyra }\IeC {\cyrl }\IeC {\cyrsftsn }\IeC {\cyrn }\IeC {\cyrery }\IeC {\cyrh } LMS}{19}
