\contentsline {section}{\numberline {1}\IeC {\CYRT }\IeC {\cyre }\IeC {\cyrr }\IeC {\cyrm }\IeC {\cyri }\IeC {\cyrn }\IeC {\cyrery } \IeC {\cyri } \IeC {\cyro }\IeC {\cyrp }\IeC {\cyrr }\IeC {\cyre }\IeC {\cyrd }\IeC {\cyre }\IeC {\cyrl }\IeC {\cyre }\IeC {\cyrn }\IeC {\cyri }\IeC {\cyrya }}{2}
\contentsline {section}{\numberline {2}\IeC {\CYRN }\IeC {\cyre }\IeC {\cyro }\IeC {\cyrb }\IeC {\cyrh }\IeC {\cyro }\IeC {\cyrd }\IeC {\cyri }\IeC {\cyrm }\IeC {\cyro }\IeC {\cyrs }\IeC {\cyrt }\IeC {\cyrsftsn } \IeC {\cyri }\IeC {\cyrn }\IeC {\cyrt }\IeC {\cyre }\IeC {\cyrl }\IeC {\cyrl }\IeC {\cyre }\IeC {\cyrk }\IeC {\cyrt }\IeC {\cyru }\IeC {\cyra }\IeC {\cyrl }\IeC {\cyrsftsn }\IeC {\cyrn }\IeC {\cyrery }\IeC {\cyrh } \IeC {\cyrv }\IeC {\cyre }\IeC {\cyrb }-\IeC {\cyrp }\IeC {\cyrr }\IeC {\cyri }\IeC {\cyrl }\IeC {\cyro }\IeC {\cyrzh }\IeC {\cyre }\IeC {\cyrn }\IeC {\cyri }\IeC {\cyrishrt }}{2}
\contentsline {paragraph}{}{2}
\contentsline {section}{\numberline {3}\IeC {\CYRS }\IeC {\cyro }\IeC {\cyrz }\IeC {\cyrd }\IeC {\cyra }\IeC {\cyrn }\IeC {\cyri }\IeC {\cyre } \IeC {\cyro }\IeC {\cyrb }\IeC {\cyrl }\IeC {\cyra }\IeC {\cyrch }\IeC {\cyrn }\IeC {\cyro }\IeC {\cyrg }\IeC {\cyro } \IeC {\cyri }\IeC {\cyrn }\IeC {\cyrt }\IeC {\cyre }\IeC {\cyrl }\IeC {\cyrl }\IeC {\cyre }\IeC {\cyrk }\IeC {\cyrt }\IeC {\cyru }\IeC {\cyra }\IeC {\cyrl }\IeC {\cyrsftsn }\IeC {\cyrn }\IeC {\cyro }\IeC {\cyrg }\IeC {\cyro } \IeC {\cyrv }\IeC {\cyre }\IeC {\cyrb }-\IeC {\cyrp }\IeC {\cyrr }\IeC {\cyri }\IeC {\cyrl }\IeC {\cyro }\IeC {\cyrzh }\IeC {\cyre }\IeC {\cyrn }\IeC {\cyri }\IeC {\cyrya } \IeC {\cyrd }\IeC {\cyrl }\IeC {\cyrya } \IeC {\cyrk }\IeC {\cyrn }\IeC {\cyri }\IeC {\cyrzh }\IeC {\cyrn }\IeC {\cyro }\IeC {\cyrg }\IeC {\cyro } \IeC {\cyrm }\IeC {\cyra }\IeC {\cyrg }\IeC {\cyra }\IeC {\cyrz }\IeC {\cyri }\IeC {\cyrn }\IeC {\cyra }}{3}
\contentsline {paragraph}{}{3}
\contentsline {section}{\numberline {4}\IeC {\CYRA }\IeC {\cyrr }\IeC {\cyrh }\IeC {\cyri }\IeC {\cyrt }\IeC {\cyre }\IeC {\cyrk }\IeC {\cyrt }\IeC {\cyru }\IeC {\cyrr }\IeC {\cyra } \IeC {\cyri }\IeC {\cyrn }\IeC {\cyrt }\IeC {\cyre }\IeC {\cyrl }\IeC {\cyrl }\IeC {\cyre }\IeC {\cyrk }\IeC {\cyrt }\IeC {\cyru }\IeC {\cyra }\IeC {\cyrl }\IeC {\cyrsftsn }\IeC {\cyrn }\IeC {\cyro }\IeC {\cyrg }\IeC {\cyro } \IeC {\cyro }\IeC {\cyrb }\IeC {\cyrl }\IeC {\cyra }\IeC {\cyrch }\IeC {\cyrn }\IeC {\cyro }\IeC {\cyrg }\IeC {\cyro } \IeC {\cyrk }\IeC {\cyrn }\IeC {\cyri }\IeC {\cyrzh }\IeC {\cyrn }\IeC {\cyro }\IeC {\cyrg }\IeC {\cyro } \IeC {\cyrm }\IeC {\cyra }\IeC {\cyrg }\IeC {\cyra }\IeC {\cyrz }\IeC {\cyri }\IeC {\cyrn }\IeC {\cyra }}{3}
\contentsline {paragraph}{}{3}
\contentsline {section}{\numberline {5}\IeC {\CYRS }\IeC {\cyrc }\IeC {\cyre }\IeC {\cyrn }\IeC {\cyra }\IeC {\cyrr }\IeC {\cyri }\IeC {\cyri } \IeC {\cyrv }\IeC {\cyrz }\IeC {\cyra }\IeC {\cyri }\IeC {\cyrm }\IeC {\cyro }\IeC {\cyrd }\IeC {\cyre }\IeC {\cyrishrt }\IeC {\cyrs }\IeC {\cyrt }\IeC {\cyrv }\IeC {\cyri }\IeC {\cyrya } \IeC {\cyra }\IeC {\cyrg }\IeC {\cyre }\IeC {\cyrn }\IeC {\cyrt }\IeC {\cyro }\IeC {\cyrv } \IeC {\cyrs } \IeC {\cyrp }\IeC {\cyro }\IeC {\cyrk }\IeC {\cyru }\IeC {\cyrp }\IeC {\cyra }\IeC {\cyrt }\IeC {\cyre }\IeC {\cyrl }\IeC {\cyrya }\IeC {\cyrm }\IeC {\cyri }}{3}
\contentsline {paragraph}{}{3}
\contentsline {section}{\numberline {6}\IeC {\CYRV }\IeC {\cyrz }\IeC {\cyra }\IeC {\cyri }\IeC {\cyrm }\IeC {\cyro }\IeC {\cyrd }\IeC {\cyre }\IeC {\cyrishrt }\IeC {\cyrs }\IeC {\cyrt }\IeC {\cyrv }\IeC {\cyri }\IeC {\cyre } \IeC {\cyra }\IeC {\cyrg }\IeC {\cyre }\IeC {\cyrn }\IeC {\cyrt }\IeC {\cyro }\IeC {\cyrv } \IeC {\cyrm }\IeC {\cyre }\IeC {\cyrzh }\IeC {\cyrd }\IeC {\cyru } \IeC {\cyrs }\IeC {\cyro }\IeC {\cyrb }\IeC {\cyro }\IeC {\cyrishrt }}{3}
\contentsline {paragraph}{}{3}
\contentsline {section}{\numberline {7}\IeC {\CYRR }\IeC {\cyre }\IeC {\cyra }\IeC {\cyrl }\IeC {\cyri }\IeC {\cyrz }\IeC {\cyra }\IeC {\cyrc }\IeC {\cyri }\IeC {\cyrya } \IeC {\cyrk }\IeC {\cyro }\IeC {\cyrg }\IeC {\cyrn }\IeC {\cyri }\IeC {\cyrt }\IeC {\cyri }\IeC {\cyrv }\IeC {\cyrn }\IeC {\cyro }\IeC {\cyrg }\IeC {\cyro } \IeC {\cyra }\IeC {\cyrg }\IeC {\cyre }\IeC {\cyrn }\IeC {\cyrt }\IeC {\cyra }}{3}
\contentsline {paragraph}{}{3}
\contentsline {section}{\numberline {8}\IeC {\CYRR }\IeC {\cyre }\IeC {\cyra }\IeC {\cyrl }\IeC {\cyri }\IeC {\cyrz }\IeC {\cyra }\IeC {\cyrc }\IeC {\cyri }\IeC {\cyrya } \IeC {\cyra }\IeC {\cyrg }\IeC {\cyre }\IeC {\cyrn }\IeC {\cyrt }\IeC {\cyra }-\IeC {\cyrerev }\IeC {\cyrk }\IeC {\cyrs }\IeC {\cyrp }\IeC {\cyre }\IeC {\cyrr }\IeC {\cyrt }\IeC {\cyra } \IeC {\cyrp }\IeC {\cyro } \IeC {\cyrk }\IeC {\cyrn }\IeC {\cyri }\IeC {\cyrg }\IeC {\cyra }\IeC {\cyrm }}{4}
\contentsline {paragraph}{}{4}
\contentsline {section}{\numberline {9}}{4}
\contentsline {paragraph}{}{4}
\contentsline {paragraph}{}{4}
\contentsline {paragraph}{}{5}
\contentsline {section}{\numberline {10}\IeC {\CYRV }\IeC {\cyrery }\IeC {\cyrv }\IeC {\cyro }\IeC {\cyrd }\IeC {\cyrery }}{7}
\contentsline {paragraph}{}{7}
