\contentsline {section}{\numberline {1}\IeC {\CYRT }\IeC {\cyre }\IeC {\cyrr }\IeC {\cyrm }\IeC {\cyri }\IeC {\cyrn }\IeC {\cyrery } \IeC {\cyri } \IeC {\cyro }\IeC {\cyrp }\IeC {\cyrr }\IeC {\cyre }\IeC {\cyrd }\IeC {\cyre }\IeC {\cyrl }\IeC {\cyre }\IeC {\cyrn }\IeC {\cyri }\IeC {\cyrya }}{2}
\contentsline {section}{\numberline {2}\IeC {\CYRP }\IeC {\cyrr }\IeC {\cyro }\IeC {\cyrb }\IeC {\cyrl }\IeC {\cyre }\IeC {\cyrm }\IeC {\cyrery } \IeC {\cyrs }\IeC {\cyro }\IeC {\cyrv }\IeC {\cyrr }\IeC {\cyre }\IeC {\cyrm }\IeC {\cyre }\IeC {\cyrn }\IeC {\cyrn }\IeC {\cyrery }\IeC {\cyrh } \IeC {\cyrp }\IeC {\cyrr }\IeC {\cyre }\IeC {\cyrd }\IeC {\cyrp }\IeC {\cyrr }\IeC {\cyri }\IeC {\cyrya }\IeC {\cyrt }\IeC {\cyri }\IeC {\cyrishrt }}{3}
\contentsline {paragraph}{}{3}
\contentsline {section}{\numberline {3}\IeC {\CYRA }\IeC {\cyrk }\IeC {\cyrt }\IeC {\cyru }\IeC {\cyra }\IeC {\cyrl }\IeC {\cyrsftsn }\IeC {\cyrn }\IeC {\cyro }\IeC {\cyrs }\IeC {\cyrt }\IeC {\cyrsftsn } \IeC {\cyri }\IeC {\cyrn }\IeC {\cyrt }\IeC {\cyre }\IeC {\cyrl }\IeC {\cyrl }\IeC {\cyre }\IeC {\cyrk }\IeC {\cyrt }\IeC {\cyru }\IeC {\cyra }\IeC {\cyrl }\IeC {\cyrsftsn }\IeC {\cyrn }\IeC {\cyrery }\IeC {\cyrh } \IeC {\cyrs }\IeC {\cyri }\IeC {\cyrs }\IeC {\cyrt }\IeC {\cyre }\IeC {\cyrm } \IeC {\cyrv }\IeC {\cyrn }\IeC {\cyru }\IeC {\cyrt }\IeC {\cyrr }\IeC {\cyri } \IeC {\cyrb }\IeC {\cyri }\IeC {\cyrz }\IeC {\cyrn }\IeC {\cyre }\IeC {\cyrs }-\IeC {\cyrp }\IeC {\cyrr }\IeC {\cyro }\IeC {\cyrc }\IeC {\cyre }\IeC {\cyrs }\IeC {\cyrs }\IeC {\cyro }\IeC {\cyrv }}{3}
\contentsline {paragraph}{}{3}
\contentsline {section}{\numberline {4}\IeC {\CYRP }\IeC {\cyrr }\IeC {\cyri }\IeC {\cyrm }\IeC {\cyre }\IeC {\cyrr } \IeC {\cyra }\IeC {\cyrr }\IeC {\cyrh }\IeC {\cyri }\IeC {\cyrt }\IeC {\cyre }\IeC {\cyrk }\IeC {\cyrt }\IeC {\cyru }\IeC {\cyrr }\IeC {\cyrery } \IeC {\cyrp }\IeC {\cyrr }\IeC {\cyre }\IeC {\cyrd }\IeC {\cyrp }\IeC {\cyrr }\IeC {\cyri }\IeC {\cyrya }\IeC {\cyrt }\IeC {\cyri }\IeC {\cyrya }}{4}
\contentsline {paragraph}{}{4}
\contentsline {paragraph}{}{4}
\contentsline {paragraph}{}{4}
\contentsline {paragraph}{}{5}
\contentsline {section}{\numberline {5}\IeC {\CYRP }\IeC {\cyrr }\IeC {\cyri }\IeC {\cyrm }\IeC {\cyre }\IeC {\cyrr }\IeC {\cyrery } \IeC {\cyrv }\IeC {\cyro }\IeC {\cyrz }\IeC {\cyrm }\IeC {\cyro }\IeC {\cyrzh }\IeC {\cyrn }\IeC {\cyrery }\IeC {\cyrh } \IeC {\cyrp }\IeC {\cyrr }\IeC {\cyri }\IeC {\cyrm }\IeC {\cyre }\IeC {\cyrn }\IeC {\cyre }\IeC {\cyrn }\IeC {\cyri }\IeC {\cyrishrt }}{5}
\contentsline {paragraph}{}{5}
\contentsline {paragraph}{}{5}
\contentsline {paragraph}{}{6}
\contentsline {section}{\numberline {6}\IeC {\CYRP }\IeC {\cyrr }\IeC {\cyri }\IeC {\cyrm }\IeC {\cyre }\IeC {\cyrr }\IeC {\cyrery } \IeC {\cyrr }\IeC {\cyra }\IeC {\cyrb }\IeC {\cyro }\IeC {\cyrch }\IeC {\cyri }\IeC {\cyrh } \IeC {\cyri }\IeC {\cyrn }\IeC {\cyrt }\IeC {\cyre }\IeC {\cyrl }\IeC {\cyrl }\IeC {\cyre }\IeC {\cyrk }\IeC {\cyrt }\IeC {\cyru }\IeC {\cyra }\IeC {\cyrl }\IeC {\cyrsftsn }\IeC {\cyrn }\IeC {\cyrery }\IeC {\cyrh } \IeC {\cyra }\IeC {\cyrg }\IeC {\cyre }\IeC {\cyrn }\IeC {\cyrt }\IeC {\cyro }\IeC {\cyrv }}{6}
\contentsline {paragraph}{}{6}
\contentsline {section}{\numberline {7}\IeC {\CYRP }\IeC {\cyrr }\IeC {\cyri }\IeC {\cyrm }\IeC {\cyre }\IeC {\cyrr }\IeC {\cyrery } \IeC {\cyri }\IeC {\cyrn }\IeC {\cyrt }\IeC {\cyre }\IeC {\cyrl }\IeC {\cyrl }\IeC {\cyre }\IeC {\cyrk }\IeC {\cyrt }\IeC {\cyru }\IeC {\cyra }\IeC {\cyrl }\IeC {\cyrsftsn }\IeC {\cyrn }\IeC {\cyrery }\IeC {\cyrh } \IeC {\cyrp }\IeC {\cyrr }\IeC {\cyre }\IeC {\cyrd }\IeC {\cyrp }\IeC {\cyrr }\IeC {\cyri }\IeC {\cyrya }\IeC {\cyrt }\IeC {\cyri }\IeC {\cyrishrt }}{7}
\contentsline {paragraph}{}{7}
\contentsline {paragraph}{}{7}
\contentsline {section}{\numberline {8}\IeC {\CYRA }\IeC {\cyrr }\IeC {\cyrh }\IeC {\cyri }\IeC {\cyrt }\IeC {\cyre }\IeC {\cyrk }\IeC {\cyrt }\IeC {\cyru }\IeC {\cyrr }\IeC {\cyra } \IeC {\cyrch }\IeC {\cyra }\IeC {\cyrs }\IeC {\cyrt }\IeC {\cyri }\IeC {\cyrch }\IeC {\cyrn }\IeC {\cyro }-\IeC {\cyri }\IeC {\cyrn }\IeC {\cyrt }\IeC {\cyre }\IeC {\cyrl }\IeC {\cyrl }\IeC {\cyre }\IeC {\cyrk }\IeC {\cyrt }\IeC {\cyru }\IeC {\cyra }\IeC {\cyrl }\IeC {\cyrsftsn }\IeC {\cyrn }\IeC {\cyro }\IeC {\cyrg }\IeC {\cyro } \IeC {\cyrp }\IeC {\cyrr }\IeC {\cyre }\IeC {\cyrd }\IeC {\cyrp }\IeC {\cyrr }\IeC {\cyri }\IeC {\cyrya }\IeC {\cyrt }\IeC {\cyri }\IeC {\cyrya }}{8}
\contentsline {paragraph}{}{8}
\contentsline {subsection}{\numberline {8.1}\IeC {\CYRP }\IeC {\cyrr }\IeC {\cyri }\IeC {\cyrm }\IeC {\cyre }\IeC {\cyrr } \IeC {\cyra }\IeC {\cyrg }\IeC {\cyre }\IeC {\cyrn }\IeC {\cyrt }\IeC {\cyra }-\IeC {\cyrk }\IeC {\cyrl }\IeC {\cyra }\IeC {\cyrs }\IeC {\cyrs }\IeC {\cyri }\IeC {\cyrf }\IeC {\cyri }\IeC {\cyrk }\IeC {\cyra }\IeC {\cyrt }\IeC {\cyro }\IeC {\cyrr }\IeC {\cyra } \IeC {\cyrp }\IeC {\cyri }\IeC {\cyrs }\IeC {\cyre }\IeC {\cyrm }}{9}
\contentsline {paragraph}{}{9}
\contentsline {section}{\numberline {9}\IeC {\CYRV }\IeC {\cyrery }\IeC {\cyrv }\IeC {\cyro }\IeC {\cyrd }\IeC {\cyrery }}{11}
\contentsline {paragraph}{}{11}
